[
  {
    "id": "1",
    "image": "https://encrypted-tbn0.gstatic.com/images?q=tbn%3AANd9GcTL8ao8TlXUSWOkJmdYkfPUgMm39P75e_6aKHve8UJ13IDwynnn&usqp=CAU"
  },
  {
    "id": "2",
    "image": "https://encrypted-tbn0.gstatic.com/images?q=tbn%3AANd9GcQsZPj5i_61MaETnmh91GyYCuqlAfOfUQ9qW0gQ6rMudSd0ubx8&usqp=CAU"
  },
  {
    "id": "3",
    "image": "https://encrypted-tbn0.gstatic.com/images?q=tbn%3AANd9GcSE2kzrGfpIEGCzAbQt7b9ZAAO91aaYw82m4mYb5KVVmQQEt0jQ&usqp=CAU"
  }
]
